<?xml version="1.0" encoding="utf-8"?>
<!-- Generator: Adobe Illustrator 22.0.1, SVG Export Plug-In . SVG Version: 6.00 Build 0)  -->
<svg version="1.1" id="Capa_1" xmlns="http://www.w3.org/2000/svg" xmlns:xlink="http://www.w3.org/1999/xlink" x="0px" y="0px"
	 viewBox="0 0 300 300" style="enable-background:new 0 0 300 300;" xml:space="preserve">
<style type="text/css">
	.st0{fill:#FFFFFF;}
</style>
<path class="st0" d="M150,1C67.7,1,1,67.7,1,150c0,82.3,66.7,149,149,149s149-66.7,149-149C299,67.7,232.3,1,150,1 M250,143.5
	l-97.1,92.3L49.7,143.5l0.5-55.4l102.7,94.7l97.4-94.7L250,143.5z"/>
</svg>
