<?xml version="1.0" encoding="UTF-8"?>
<svg width="32px" height="32px" viewBox="0 0 32 32" version="1.1" xmlns="http://www.w3.org/2000/svg" xmlns:xlink="http://www.w3.org/1999/xlink">
    <!-- Generator: Sketch 55 (78076) - https://sketchapp.com -->
    <title>Group 6</title>
    <desc>Created with Sketch.</desc>
    <defs>
        <polygon id="path-1" points="2.1875e-05 0 20.9234594 0 20.9234594 31.9999785 2.1875e-05 31.9999785"></polygon>
    </defs>
    <g id="mobile" stroke="none" stroke-width="1" fill="none" fill-rule="evenodd">
        <g id="gracias_mobile" transform="translate(-27.000000, -604.000000)">
            <g id="Group-6" transform="translate(27.000000, 604.000000)">
                <g id="Group-3">
                    <mask id="mask-2" fill="white">
                        <use xlink:href="#path-1"></use>
                    </mask>
                    <g id="Clip-2"></g>
                    <path d="M11.6703344,11.4576966 L20.9234594,11.4576966 L20.9234594,-2.14765101e-05 L16.3078344,-2.14765101e-05 C13.7484594,-2.14765101e-05 11.6703344,2.04024698 11.6703344,4.55299866 L11.6703344,11.4576966 L2.1875e-05,11.4576966 L2.1875e-05,15.9892403 C2.1875e-05,18.5019919 2.07814687,20.5422604 4.63752187,20.5422604 L11.6703344,20.5422604 L11.6703344,31.9999785 L16.2859594,31.9999785 C18.8453344,31.9999785 20.9234594,29.9597101 20.9234594,27.4469584 L20.9234594,20.5422604 L11.6703344,20.5422604 L11.6703344,11.4576966 Z" id="Fill-1" fill="#0E4B6C" mask="url(#mask-2)"></path>
                </g>
                <path d="M27.2314902,11 L20,11 L20,21 L32,21 L32,16.0118203 C32,13.2458629 29.8631678,11 27.2314902,11" id="Fill-4" fill="#0E4B6C"></path>
            </g>
        </g>
    </g>
</svg>